LAB/LAB 10/Ejercicio 1/ejercicio1Lab10x_tb.vcd
$date
	Thu Nov 05 16:09:43 2020
$end
$version
	Icarus Verilog
$end
$timescale
	1ps
$end
$scope module Ejercicio_1LAB10 $end
$var wire 4 ! Q2 [3:0] $end
$var wire 4 " Q1 [3:0] $end
$var reg 1 # Clk $end
$var reg 12 $ data [11:0] $end
$var reg 1 % enable $end
$var reg 1 & load $end
$var reg 1 ' reset $end
$scope module U1 $end
$var wire 1 # clk $end
$var wire 12 ( data [11:0] $end
$var wire 1 % enable $end
$var wire 1 & load $end
$var wire 1 ' reset $end
$var wire 4 ) Q1 [3:0] $end
$var wire 4 * Q0 [3:0] $end
$var wire 8 + OutMR [7:0] $end
$var wire 12 , OutCL [11:0] $end
$scope module O1 $end
$var wire 1 # clk $end
$var wire 12 - data [11:0] $end
$var wire 1 % enable $end
$var wire 1 & load $end
$var wire 1 ' reset $end
$var reg 12 . out [11:0] $end
$upscope $end
$scope module O2 $end
$var wire 12 / address [11:0] $end
$var wire 8 0 data [7:0] $end
$upscope $end
$scope module O3 $end
$var wire 1 # CLK $end
$var wire 8 1 D [7:0] $end
$var wire 1 % enable $end
$var wire 1 ' reset $end
$var wire 4 2 D1 [3:0] $end
$var wire 4 3 D0 [3:0] $end
$var reg 4 4 Q0 [3:0] $end
$var reg 4 5 Q1 [3:0] $end
$upscope $end
$upscope $end
$upscope $end
$enddefinitions $end
#0
$dumpvars
bx 5
bx 4
bx 3
bx 2
bx 1
bx 0
bx /
bx .
bx -
bx ,
bx +
bx *
bx )
bx (
x'
x&
x%
bx $
0#
bx "
bx !
$end
#3
b0 2
b0 3
b0 +
b0 0
b0 1
b0 ,
b0 .
b0 /
b0 !
b0 *
b0 4
b0 "
b0 )
b0 5
b0 $
b0 (
b0 -
0&
0%
1'
#4
0'
#5
1#
#10
0#
#15
1#
#20
0#
#24
1%
#25
b1 3
b1 +
b1 0
b1 1
b1 ,
b1 .
b1 /
1#
#30
0#
#35
b10 3
b10 +
b10 0
b10 1
b10 ,
b10 .
b10 /
b1 !
b1 *
b1 4
1#
#40
0#
#45
b11 3
b11 +
b11 0
b11 1
b11 ,
b11 .
b11 /
b10 !
b10 *
b10 4
1#
#50
0#
#55
b100 3
b100 +
b100 0
b100 1
b100 ,
b100 .
b100 /
b11 !
b11 *
b11 4
1#
#60
0#
#65
b101 3
b101 +
b101 0
b101 1
b101 ,
b101 .
b101 /
b100 !
b100 *
b100 4
1#
#70
0#
#74
b11 2
b10 3
b110010 +
b110010 0
b110010 1
b110010 ,
b110010 .
b110010 /
1&
b110010 $
b110010 (
b110010 -
#75
b10 !
b10 *
b10 4
b11 "
b11 )
b11 5
1#
#80
0#
#85
1#
#89
0&
#90
0#
#95
b11 3
b110011 +
b110011 0
b110011 1
b110011 ,
b110011 .
b110011 /
1#
#100
0#
#105
b100 3
b110100 +
b110100 0
b110100 1
b110100 ,
b110100 .
b110100 /
b11 !
b11 *
b11 4
1#
#110
0#
#115
b101 3
b110101 +
b110101 0
b110101 1
b110101 ,
b110101 .
b110101 /
b100 !
b100 *
b100 4
1#
#120
0#
#125
b0 2
b1 3
b1 +
b1 0
b1 1
b110110 ,
b110110 .
b110110 /
b101 !
b101 *
b101 4
1#
#130
0#
#135
b110111 ,
b110111 .
b110111 /
b1 !
b1 *
b1 4
b0 "
b0 )
b0 5
1#
#140
0#
#145
b11 2
b1000 3
b111000 +
b111000 0
b111000 1
b111000 ,
b111000 .
b111000 /
1#
